<?xml version="1.0" standalone="no"?>
<!DOCTYPE svg PUBLIC "-//W3C//DTD SVG 1.1//EN" "http://www.w3.org/Graphics/SVG/1.1/DTD/svg11.dtd" >
<svg xmlns="http://www.w3.org/2000/svg">
<metadata>
Created by FontForge 20100429 at Mon Feb  4 10:42:01 2013
 By root
Copyright (C) 2012 by original authors @ fontello.com
</metadata>
<defs>
<font id="fontello" horiz-adv-x="364" >
  <font-face 
    font-family="fontello"
    font-weight="500"
    font-stretch="normal"
    units-per-em="1000"
    panose-1="2 0 6 3 0 0 0 0 0 0"
    ascent="850"
    descent="-150"
    bbox="12 -167 1086 867"
    underline-thickness="50"
    underline-position="-100"
    unicode-range="U+0055-1F517"
  />
<missing-glyph 
d="M33 0v666h265v-666h-265zM66 33h199v600h-199v-600z" />
    <glyph glyph-name=".notdef" 
d="M33 0v666h265v-666h-265zM66 33h199v600h-199v-600z" />
    <glyph glyph-name=".null" horiz-adv-x="0" 
 />
    <glyph glyph-name="nonmarkingreturn" horiz-adv-x="333" 
 />
    <glyph glyph-name="U" unicode="U" horiz-adv-x="893" 
d="M21 285q4 53 38 86.5t87 36.5q112 5 301 5t301 -5q53 -3 87 -36.5t38 -86.5q5 -100 5 -162t-5 -162q-4 -53 -38 -86.5t-87 -36.5q-112 -5 -301 -5t-301 5q-53 3 -87 36.5t-38 86.5q-6 108 -6 162t6 162zM143 264v-326h59v326h61v55h-181v-55h61zM147 867h60l38 -152h4
l36 152h60l-46 -148l-13 -39l-8 -28l-2 -8v-158h-59v151q-2 12 -6 25.5t-9.5 28.5t-7.5 23zM299 -66q32 0 61 35v-31h52v281h-52v-214q-21 -21 -31 -21q-14 0 -14 19v216h-52v-237q0 -48 36 -48zM418 479q-35 0 -55.5 21.5t-20.5 56.5v146q0 33 21.5 52t56.5 19
q33 0 53.5 -20t20.5 -53v-145q0 -36 -20 -56.5t-56 -20.5zM418 726q-9 0 -15.5 -5.5t-6.5 -14.5v-156q0 -23 22 -23q23 0 23 25v153q0 9 -7 15t-16 6zM516 -62v21q19 -25 50 -25q47 0 47 62v156q0 71 -51 71q-25 0 -46 -27v123h-53v-381h53zM516 167q11 11 22 11
q22 0 22 -28v-148q0 -24 -19 -24q-15 0 -25 13v176zM539 767h52v-215q0 -19 14 -19q13 0 31 21v213h52v-281h-52v31q-29 -35 -61 -35q-36 0 -36 48v237zM653 17q0 -39 19.5 -63t56.5 -24q78 0 78 87v21h-54v-11v-12q0 -4 -0.5 -11t-2 -10.5t-4 -7.5t-6.5 -5.5t-10 -1.5
q-23 0 -23 40v53h100v72q0 82 -75 82q-36 0 -57.5 -23t-21.5 -59v-127zM707 116v30q0 31 23 31t23 -31v-30h-46z" />
    <glyph glyph-name="uniE77A" unicode="&#xe77a;" horiz-adv-x="816" 
d="M414 779q3 0 16.5 -0.5t18.5 -0.5h41q49 0 106 -15q70 -21 114.5 -68t44.5 -122q0 -77 -71 -130q-19 -13 -84 -43q99 -22 149 -82q52 -60 52 -132q0 -74 -38 -130.5t-96 -84.5q-92 -44 -224 -40l-110 3q-46 1 -166 -6q-38 -3 -152 -7l1 53q94 19 107 24q10 16 11 28
q5 42 5 109l-1 277q-1 44 -2.5 120t-2.5 105q-1 52 -7 62q-8 12 -44 14q-7 1 -64 8l-2 46l145 3l212 7l25 1q2 0 8 0.5t8 0.5zM378 414q99 0 148 36.5t49 124.5q0 62 -48 104q-47 42 -142 42q-32 0 -73 -7q0 -19 2 -43q3 -45 3 -156l-1 -55q0 -8 0.5 -22t0.5 -20
q21 -4 61 -4zM316 176l2 -150q0 -6 7 -25q42 -18 78 -18q210 0 210 187q0 63 -23 101q-33 53 -78 70.5t-139 17.5q-41 0 -56 -6v-80z" />
    <glyph glyph-name="uniE77B" unicode="&#xe77b;" horiz-adv-x="601" 
d="M15 -77l9 47q1 0 43 11q38 10 65 22q17 22 23 56q14 77 46 227l7 36q15 84 30 128l2 6l17 88l9 35q7 38 16 103v21q-25 13 -80 16q-4 0 -8.5 0.5t-7.5 1t-5 0.5l10 58l177 -8q15 -1 41 -1q45 0 157 7l20 2q-3 -28 -10 -50q-15 -5 -57.5 -16.5t-59.5 -18.5
q-15 -38 -21 -95l-14 -65q-9 -37 -14 -62t-9 -43l-34 -174l-21 -88l-24 -131l-7 -25q-1 -2 1 -15q5 -1 103 -18q-1 -8 -9 -55q-7 0 -18.5 -1t-17.5 -1q-2 0 -16 2q-38 5 -81 10l-110 1q-3 0 -152 -11z" />
    <glyph glyph-name="uniE800" unicode="&#xe800;" horiz-adv-x="1029" 
d="M276 800q46 0 78 -42t32 -102t-32 -102.5t-78 -42.5t-77.5 42.5t-31.5 102.5t31.5 102t77.5 42zM924 185q15 16 36.5 16.5t37.5 -15.5t16 -38.5t-15 -38.5q-125 -131 -296 -181.5t-346 -10t-309 166.5l-17 17q-16 16 -16 38t15 38t37 16.5t38 -15.5l12 -12l3 -3
q114 -107 262.5 -140.5t292.5 9.5t249 153zM753 800q46 0 77.5 -42t31.5 -102t-31.5 -102.5t-77.5 -42.5t-78 42.5t-32 102.5t32 102t78 42z" />
    <glyph glyph-name="uniF0CC" unicode="&#xf0cc;" horiz-adv-x="1030" 
d="M33 279q-18 0 -18 17v36q0 8 5.5 13t12.5 5h964q7 0 12.5 -5t5.5 -13v-36q0 -17 -18 -17h-964zM285 386q-23 28 -39.5 70t-16.5 79q0 101 75 173q74 71 219 71q72 0 192 -38q6 -21 12 -66q8 -74 8 -102q0 -10 -3 -25l-7 -2l-46 4l-8 1q-29 83 -58 114q-49 51 -117 51
q-59 0 -99 -31t-40 -83q0 -41 37 -78q38 -38 156 -72q30 -9 77 -29.5t72 -36.5h-414zM246 79v38l1 20v25l57 1q10 -23 29 -71q14 -36 52 -67q53 -44 132 -44q68 0 120 37.5t52 97.5q0 46 -45 87q-18 15 -77 40h230q4 -20 4 -51q0 -112 -63 -177q-22 -20 -61 -45
q-46 -28 -87.5 -38.5t-110.5 -10.5q-66 0 -109 13l-78 23q-31 9 -40 15q-5 5 -5 12v8q0 69 -1 87z" />
    <glyph glyph-name="uniF0CD" unicode="&#xf0cd;" horiz-adv-x="887" 
d="M15 -25q0 7 5.5 12.5t12.5 5.5h821q8 0 13 -5.5t5 -12.5v-36q0 -7 -5 -12.5t-13 -5.5h-821q-7 0 -12.5 5.5t-5.5 12.5v36zM15 777h22q23 0 86 -3t69 -3q16 0 176 5q37 0 48 1l-1 -8l1 -36v-5q-37 -5 -69 -5q-33 0 -44 -14q-7 -7 -7 -73v-33l1 -127l8 -157q6 -123 82 -164
q50 -26 98 -26q104 0 162 44q48 36 66 99q12 40 12 128q0 38 -2.5 74.5t-7 81.5t-6.5 73l-2 33q-3 38 -13 49q-19 19 -43 19l-56 -1l-8 2l1 48h47l114 -6q42 -2 110 6l10 -2q3 -21 3 -28q0 -1 -0.5 -3.5t-1 -6t-0.5 -7.5q-34 -8 -47 -8q-41 -6 -44 -9q-8 -8 -8 -23
q0 -2 0.5 -15.5t0.5 -16.5q6 -13 13 -221q3 -109 -9 -170q-9 -49 -28 -78t-57 -59q-90 -68 -244 -68q-182 0 -258 94q-35 42 -47 109q-9 45 -9 132v186q0 105 -9 119q-14 20 -82 22q-24 2 -25 2z" />
    <glyph glyph-name="uniF30F" unicode="&#xf30f;" horiz-adv-x="951" 
d="M938 545q-5 -134 -188 -370q-190 -245 -320 -245q-81 0 -137 150l-75 274q-42 150 -90 150q-9 0 -72 -44l-44 56l135 120q92 80 137 84q54 5 87 -32t46 -116q29 -176 37 -212q32 -141 69 -141q30 0 87 91q60 94 63 139q9 79 -63 79q-34 0 -68 -14q68 222 261 216
q143 -4 135 -185z" />
    <glyph glyph-name="u1F304" unicode="&#x1f304;" horiz-adv-x="1101" 
d="M104 -79q-37 0 -63 26.5t-26 63.5v678q0 37 26 63.5t63 26.5h893q37 0 63 -26.5t26 -63.5v-678q0 -37 -26 -63.5t-63 -26.5h-893zM86 11q0 -7 5 -12.5t13 -5.5h893q7 0 12.5 5.5t5.5 12.5v678q0 7 -5.5 12.5t-12.5 5.5h-893q-8 0 -13 -5.5t-5 -12.5v-678zM158 171
l178 179l90 -89l285 285l233 -232v-250h-786v107zM158 529q0 44 31.5 75.5t75.5 31.5t75.5 -31.5t31.5 -75.5t-31.5 -76t-75.5 -32t-75.5 32t-31.5 76z" />
    <glyph glyph-name="u1F517" unicode="&#x1f517;" horiz-adv-x="941" 
d="M62 713l82 82q46 46 114 46t114 -47l115 -116q46 -46 46 -113q0 -69 -49 -117l49 -49q48 49 116 49q67 0 114 -47l116 -116q47 -47 47 -114t-48 -113l-82 -81q-47 -47 -113 -47q-67 0 -114 48l-115 115q-46 46 -46 114t49 116l-49 49q-48 -49 -116 -49q-67 0 -114 47
l-116 116q-47 47 -47 114t47 113zM345 564q11 0 21.5 -5t14.5 -8t15 -15l12 -12q18 18 18 41t-15 38l-115 115q-16 16 -38 16t-38 -15l-82 -82q-16 -16 -16 -37q0 -22 16 -38l116 -116q15 -15 38 -15q24 0 40 17q-2 2 -10 9t-12 11l-8 12q-5 7 -7.5 14.5t-2.5 16.5
q0 23 15 38t38 15zM514 207q0 -22 16 -38l115 -116q15 -15 38 -15t38 15l82 81q16 16 16 37q0 22 -16 38l-116 116q-16 16 -38 16q-23 0 -40 -18q1 -1 12 -11t14.5 -15t8.5 -15t5 -21q0 -23 -15.5 -38.5t-38.5 -15.5q-11 0 -21 5t-15 8.5t-15 14.5t-11 12q-19 -19 -19 -40z
" />
  </font>
</defs></svg>
